nombre;apellido1;apellido2;descripcion;memberof
NOELIA;ORTEGA;ROJO;Coord.Territorial;puerto3 oat
AITOR MARIA;SERRATO;RUISANCHEZ;Of-Administracion (Puerto3);puerto3 adm
TRIFON;MARTIN;MARTIN;Administrador (Puerto3);puerto3 adm:puerto2 dir
FELIX;PATIÑO;UCERO;Of-Gestion Expdtes (Puerto3);puerto3 reg
FCO  MANUEL;MESA;RIVERA;V1-Vigilancia (Puerto3);puerto3 int
JESUS;FERNANDEZ;PORRAS;V1-Vigilancia (Puerto3);puerto3 int
JOSE LUIS;FERNANDEZ;PEREZ;V1-Vigilancia (Puerto3);puerto3 int
JESUS;FERNANDEZ;PUERTO;V1-Vigilancia (Puerto3);puerto3 int
FRANCISCO JAVIER;HERRERO;PEREZ;V2-Comunicaciones (Puerto3);puerto3 seg
PEDRO LUIS;ALCARAZ;LEON;Of-Seguridad (Puerto3);puerto3 seg
FRANCISCO JAVIER;VALLE;VERA;Medico (Puerto3);puerto3 san
MARCELINO;CALDERON;PEDRAZA;DUE (Puerto3);puerto3 san
JOSE VICENTE;CLAVIJO;PEREZ DE LA LASTRA;V2-Comunicaciones (Puerto3);puerto3 seg
MARIA CINTA DE LA;TORRE;GARCIA;Of-Gestion Expdtes (Puerto3);puerto3 reg
MIGUEL;ZARATE;ESPINOSA DE LOS MONTEROS;Of-Peculio (Puerto3);puerto3 adm
MANUEL;NAVARRO;LADRON DE GUEVARA;Of-Administracion (Puerto3);puerto3 adm